<svg xmlns="http://www.w3.org/2000/svg" viewBox="0 0 344.68 394.29">

	<path id="base" d="M375.2,295.43V110.29a12,12,0,0,0-6-10.39L208.86,7.33a12,12,0,0,0-12,0L36.52,99.9a12,12,0,0,0-6,10.39V295.43a12,12,0,0,0,6,10.4L196.86,398.4a12,12,0,0,0,12,0L369.2,305.83A12,12,0,0,0,375.2,295.43Z" transform="translate(-30.52 -5.72)"/>
	
	<g id="left">
		<path id="l1" d="M67.94,170.5,40.71,154.78c-2.75-1.59-5-5.89-5-9.56V115.56c0-3.67,2.25-5.37,5-3.78L67.94,127.5c2.75,1.59,5,5.89,5,9.56v29.66C72.94,170.39,70.69,172.09,67.94,170.5Z" transform="translate(-30.52 -5.72)" style="fill: #565656"/>
		<path id="l2" d="M110.59,195.38,83.36,179.65c-2.75-1.59-5-5.89-5-9.56V140.43c0-3.66,2.25-5.37,5-3.78l27.23,15.73c2.75,1.59,5,5.89,5,9.55v29.66C115.6,195.26,113.34,197,110.59,195.38Z" transform="translate(-30.52 -5.72)" style="fill: #565656"/>
		<path id="l3" d="M153.25,220.25,126,204.53c-2.75-1.59-5-5.89-5-9.56V165.31c0-3.67,2.25-5.37,5-3.78l27.24,15.72c2.75,1.59,5,5.89,5,9.56v29.66C158.25,220.14,156,221.84,153.25,220.25Z" transform="translate(-30.52 -5.72)" style="fill: #565656"/>
		<path id="l4" d="M195.9,245.13,168.66,229.4c-2.75-1.59-5-5.89-5-9.56V190.18c0-3.66,2.25-5.37,5-3.78l27.24,15.73c2.75,1.59,5,5.89,5,9.55v29.66C200.9,245,198.65,246.71,195.9,245.13Z" transform="translate(-30.52 -5.72)" style="fill: #565656"/>
		<path id="l5" d="M67.94,219.5,40.71,203.78c-2.75-1.59-5-5.89-5-9.56V164.56c0-3.67,2.25-5.37,5-3.78L67.94,176.5c2.75,1.59,5,5.89,5,9.56v29.66C72.94,219.39,70.69,221.09,67.94,219.5Z" transform="translate(-30.52 -5.72)" style="fill: #565656"/>
		<path id="l6" d="M110.59,244.37,83.36,228.65c-2.75-1.59-5-5.89-5-9.56V189.43c0-3.67,2.25-5.37,5-3.78l27.23,15.73c2.75,1.58,5,5.88,5,9.55v29.66C115.6,244.26,113.34,246,110.59,244.37Z" transform="translate(-30.52 -5.72)" style="fill: #565656"/>
		<path id="l7" d="M153.25,269.25,126,253.53c-2.75-1.59-5-5.89-5-9.56V214.31c0-3.67,2.25-5.37,5-3.78l27.24,15.72c2.75,1.59,5,5.89,5,9.56v29.66C158.25,269.14,156,270.84,153.25,269.25Z" transform="translate(-30.52 -5.72)" style="fill: #565656"/>
		<path id="l8" d="M195.9,294.12,168.66,278.4c-2.75-1.59-5-5.89-5-9.56V239.18c0-3.67,2.25-5.37,5-3.78l27.24,15.73c2.75,1.58,5,5.88,5,9.55v29.66C200.9,294,198.65,295.71,195.9,294.12Z" transform="translate(-30.52 -5.72)" style="fill: #180c8a"/>
		<path id="l9" d="M67.94,268.5,40.71,252.77c-2.75-1.58-5-5.89-5-9.55V213.56c0-3.67,2.25-5.37,5-3.78L67.94,225.5c2.75,1.59,5,5.89,5,9.56v29.66C72.94,268.38,70.69,270.09,67.94,268.5Z" transform="translate(-30.52 -5.72)" style="fill: #565656"/>
		<path id="l10" d="M110.59,293.37,83.36,277.65c-2.75-1.59-5-5.89-5-9.56V238.43c0-3.67,2.25-5.37,5-3.78l27.23,15.72c2.75,1.59,5,5.89,5,9.56v29.66C115.6,293.26,113.34,295,110.59,293.37Z" transform="translate(-30.52 -5.72)" style="fill: #565656"/>
		<path id="l11" d="M153.25,318.25,126,302.52c-2.75-1.58-5-5.89-5-9.55V263.31c0-3.67,2.25-5.37,5-3.78l27.24,15.72c2.75,1.59,5,5.89,5,9.56v29.66C158.25,318.13,156,319.84,153.25,318.25Z" transform="translate(-30.52 -5.72)" style="fill: #565656"/>
		<path id="l12" d="M195.9,343.12,168.66,327.4c-2.75-1.59-5-5.89-5-9.56V288.18c0-3.67,2.25-5.37,5-3.78l27.24,15.72c2.75,1.59,5,5.89,5,9.56v29.66C200.9,343,198.65,344.71,195.9,343.12Z" transform="translate(-30.52 -5.72)" style="fill: #fff144"/>
		<path id="l13" d="M67.94,317.5,40.71,301.77c-2.75-1.59-5-5.89-5-9.56V262.56c0-3.67,2.25-5.37,5-3.79L67.94,274.5c2.75,1.59,5,5.89,5,9.56v29.65C72.94,317.38,70.69,319.08,67.94,317.5Z" transform="translate(-30.52 -5.72)" style="fill: #565656"/>
		<path id="l14" d="M110.59,342.37,83.36,326.65c-2.75-1.59-5-5.89-5-9.56V287.43c0-3.67,2.25-5.37,5-3.78l27.23,15.72c2.75,1.59,5,5.89,5,9.56v29.66C115.6,342.26,113.34,344,110.59,342.37Z" transform="translate(-30.52 -5.72)" style="fill: #565656"/>
		<path id="l15" d="M153.25,367.25,126,351.52c-2.75-1.59-5-5.89-5-9.56V312.31c0-3.67,2.25-5.37,5-3.79l27.24,15.73c2.75,1.59,5,5.89,5,9.56v29.65C158.25,367.13,156,368.83,153.25,367.25Z" transform="translate(-30.52 -5.72)" style="fill: #565656"/>
		<path id="l16" d="M195.9,392.12,168.66,376.4c-2.75-1.59-5-5.89-5-9.56V337.18c0-3.67,2.25-5.37,5-3.78l27.24,15.72c2.75,1.59,5,5.89,5,9.56v29.66C200.9,392,198.65,393.71,195.9,392.12Z" transform="translate(-30.52 -5.72)" style="fill: #565656"/>
	</g>
	
	<g id="top">
		<path id="t1" d="M106.81,101.13,79.58,85.41C76.83,83.82,72,84,68.8,85.86L43.11,100.69c-3.17,1.83-3.52,4.63-.77,6.22l27.23,15.72c2.75,1.59,7.6,1.39,10.78-.44L106,107.36C109.21,105.52,109.56,102.72,106.81,101.13Z" transform="translate(-30.52 -5.72)" style="fill: #565656"/>
		<path id="t2" d="M149.25,76.63,122,60.91c-2.75-1.59-7.6-1.39-10.78.45L85.55,76.19C82.37,78,82,80.82,84.77,82.41L112,98.13c2.75,1.59,7.6,1.39,10.78-.44l25.68-14.83C151.65,81,152,78.22,149.25,76.63Z" transform="translate(-30.52 -5.72)" style="fill: #565656"/>
		<path id="t3" d="M191.68,52.14,164.44,36.41c-2.75-1.59-7.6-1.39-10.77.45L128,51.69c-3.18,1.83-3.52,4.63-.77,6.22l27.23,15.72c2.75,1.59,7.6,1.39,10.78-.44l25.69-14.83C194.08,56.52,194.43,53.72,191.68,52.14Z" transform="translate(-30.52 -5.72)" style="fill: #565656"/>
		<path id="t4" d="M234.11,27.64,206.88,11.91c-2.75-1.59-7.6-1.39-10.78.45L170.41,27.19c-3.17,1.83-3.52,4.63-.77,6.22l27.24,15.73c2.75,1.58,7.6,1.38,10.77-.45l25.69-14.83C236.52,32,236.86,29.22,234.11,27.64Z" transform="translate(-30.52 -5.72)" style="fill: #565656"/>
		<path id="t5" d="M149.68,125.63l-27.24-15.72c-2.75-1.59-7.6-1.39-10.77.45L86,125.19c-3.18,1.83-3.52,4.63-.77,6.22l27.23,15.72c2.75,1.59,7.6,1.39,10.78-.44l25.69-14.83C152.08,130,152.43,127.22,149.68,125.63Z" transform="translate(-30.52 -5.72)" style="fill: #565656"/>
		<path id="t6" d="M192.11,101.13,164.88,85.41c-2.75-1.59-7.6-1.39-10.78.45l-25.69,14.83c-3.17,1.83-3.52,4.63-.77,6.22l27.24,15.72c2.75,1.59,7.6,1.39,10.77-.44l25.69-14.83C194.52,105.52,194.86,102.72,192.11,101.13Z" transform="translate(-30.52 -5.72)" style="fill: #565656"/>
		<path id="t7" d="M234.55,76.64,207.31,60.91c-2.75-1.59-7.6-1.39-10.78.45L170.85,76.19c-3.18,1.83-3.53,4.63-.78,6.22l27.24,15.72c2.75,1.59,7.6,1.39,10.78-.44l25.68-14.83C237,81,237.3,78.22,234.55,76.64Z" transform="translate(-30.52 -5.72)" style="fill: #565656"/>
		<path id="t8" d="M277,52.14,249.75,36.41c-2.75-1.59-7.6-1.39-10.78.45L213.28,51.69c-3.17,1.83-3.52,4.63-.77,6.22l27.23,15.73c2.75,1.58,7.6,1.38,10.78-.45l25.69-14.83C279.38,56.52,279.73,53.72,277,52.14Z" transform="translate(-30.52 -5.72)" style="fill: #565656"/>
		<path id="t9" d="M192.55,150.13l-27.24-15.72c-2.75-1.59-7.6-1.39-10.78.45l-25.68,14.83c-3.18,1.83-3.53,4.63-.78,6.22l27.24,15.72c2.75,1.59,7.6,1.39,10.78-.44l25.68-14.83C195,154.52,195.3,151.72,192.55,150.13Z" transform="translate(-30.52 -5.72)" style="fill: #565656"/>
		<path id="t10" d="M235,125.63l-27.23-15.72c-2.75-1.59-7.6-1.39-10.78.45l-25.69,14.83c-3.17,1.83-3.52,4.63-.77,6.22l27.23,15.72c2.75,1.59,7.6,1.39,10.78-.44l25.69-14.83C237.38,130,237.73,127.22,235,125.63Z" transform="translate(-30.52 -5.72)" style="fill: #565656"/>
		<path id="t11" d="M277.42,101.14,250.18,85.41c-2.75-1.59-7.6-1.39-10.78.45l-25.68,14.83c-3.18,1.83-3.53,4.63-.78,6.22l27.24,15.72c2.75,1.59,7.6,1.39,10.78-.44l25.68-14.83C279.82,105.52,280.17,102.72,277.42,101.14Z" transform="translate(-30.52 -5.72)" style="fill: #565656"/>
		<path id="t12" d="M319.85,76.64,292.61,60.91c-2.75-1.59-7.6-1.39-10.77.45L256.15,76.19c-3.18,1.83-3.52,4.63-.77,6.22l27.23,15.73c2.75,1.58,7.6,1.38,10.78-.45l25.69-14.83C322.25,81,322.6,78.22,319.85,76.64Z" transform="translate(-30.52 -5.72)" style="fill: #565656"/>
		<path id="t13" d="M235.42,174.63l-27.24-15.72c-2.75-1.59-7.6-1.39-10.78.45l-25.68,14.83c-3.18,1.83-3.53,4.63-.78,6.22l27.24,15.72c2.75,1.59,7.6,1.39,10.78-.44l25.68-14.83C237.82,179,238.17,176.22,235.42,174.63Z" transform="translate(-30.52 -5.72)" style="fill: #565656"/>
		<path id="t14" d="M277.85,150.13l-27.23-15.72c-2.76-1.59-7.61-1.39-10.78.45l-25.69,14.83c-3.18,1.83-3.52,4.63-.77,6.22l27.23,15.72c2.75,1.59,7.6,1.39,10.78-.44l25.69-14.83C280.25,154.52,280.6,151.72,277.85,150.13Z" transform="translate(-30.52 -5.72)" style="fill: #565656"/>
		<path id="t15" d="M320.28,125.64l-27.23-15.73c-2.75-1.59-7.6-1.39-10.78.45l-25.69,14.83c-3.17,1.83-3.52,4.63-.77,6.22l27.24,15.72c2.75,1.59,7.6,1.39,10.77-.44l25.69-14.83C322.69,130,323,127.22,320.28,125.64Z" transform="translate(-30.52 -5.72)" style="fill: #565656"/>
		<path id="t16" d="M362.72,101.14,335.48,85.41c-2.75-1.59-7.6-1.39-10.78.45L299,100.69c-3.18,1.83-3.53,4.63-.77,6.22l27.23,15.73c2.75,1.58,7.6,1.38,10.78-.45l25.68-14.83C365.12,105.52,365.47,102.72,362.72,101.14Z" transform="translate(-30.52 -5.72)" style="fill: #565656"/>
	</g>
	
	<g id="right">
		<path id="r1" d="M211.33,245.13l27.23-15.73c2.75-1.59,5-5.89,5-9.56V190.18c0-3.66-2.25-5.37-5-3.78l-27.23,15.73c-2.76,1.59-5,5.89-5,9.55v29.66C206.32,245,208.57,246.71,211.33,245.13Z" transform="translate(-30.52 -5.72)" style="fill: #565656"/>
		<path id="r2" d="M254,220.25l27.23-15.72c2.75-1.59,5-5.89,5-9.56V165.31c0-3.67-2.25-5.37-5-3.78L254,177.25c-2.75,1.59-5,5.89-5,9.56v29.66C249,220.14,251.23,221.84,254,220.25Z" transform="translate(-30.52 -5.72)" style="fill: #565656"/>
		<path id="r3" d="M296.63,195.38l27.23-15.73c2.76-1.59,5-5.89,5-9.56V140.43c0-3.66-2.25-5.37-5-3.78l-27.23,15.73c-2.75,1.59-5,5.89-5,9.55v29.66C291.63,195.26,293.88,197,296.63,195.38Z" transform="translate(-30.52 -5.72)" style="fill: #565656"/>
		<path id="r4" d="M339.28,170.5l27.24-15.72c2.75-1.59,5-5.89,5-9.56V115.56c0-3.67-2.25-5.37-5-3.78L339.28,127.5c-2.75,1.59-5,5.89-5,9.56v29.66C334.28,170.39,336.53,172.09,339.28,170.5Z" transform="translate(-30.52 -5.72)" style="fill: #565656"/>
		<path id="r5" d="M211.33,294.12l27.23-15.72c2.75-1.59,5-5.89,5-9.56V239.18c0-3.67-2.25-5.37-5-3.78l-27.23,15.73c-2.76,1.58-5,5.88-5,9.55v29.66C206.32,294,208.57,295.71,211.33,294.12Z" transform="translate(-30.52 -5.72)" style="fill: #ea0600"/>
		<path id="r6" d="M254,269.25l27.23-15.72c2.75-1.59,5-5.89,5-9.56V214.31c0-3.67-2.25-5.37-5-3.78L254,226.25c-2.75,1.59-5,5.89-5,9.56v29.66C249,269.14,251.23,270.84,254,269.25Z" transform="translate(-30.52 -5.72)" style="fill: #565656"/>
		<path id="r7" d="M296.63,244.37l27.23-15.72c2.76-1.59,5-5.89,5-9.56V189.43c0-3.67-2.25-5.37-5-3.78l-27.23,15.73c-2.75,1.58-5,5.88-5,9.55v29.66C291.63,244.26,293.88,246,296.63,244.37Z" transform="translate(-30.52 -5.72)" style="fill: #565656"/>
		<path id="r8" d="M339.28,219.5l27.24-15.72c2.75-1.59,5-5.89,5-9.56V164.56c0-3.67-2.25-5.37-5-3.78L339.28,176.5c-2.75,1.59-5,5.89-5,9.56v29.66C334.28,219.39,336.53,221.09,339.28,219.5Z" transform="translate(-30.52 -5.72)" style="fill: #565656"/>
		<path id="r9" d="M211.33,343.12l27.23-15.72c2.75-1.59,5-5.89,5-9.56V288.18c0-3.67-2.25-5.37-5-3.78l-27.23,15.72c-2.76,1.59-5,5.89-5,9.56v29.66C206.32,343,208.57,344.71,211.33,343.12Z" transform="translate(-30.52 -5.72)" style="fill: #180c8a"/>
		<path id="r10" d="M254,318.25l27.23-15.73c2.75-1.58,5-5.89,5-9.55V263.31c0-3.67-2.25-5.37-5-3.78L254,275.25c-2.75,1.59-5,5.89-5,9.56v29.66C249,318.13,251.23,319.84,254,318.25Z" transform="translate(-30.52 -5.72)" style="fill: #565656"/>
		<path id="r11" d="M296.63,293.37l27.23-15.72c2.76-1.59,5-5.89,5-9.56V238.43c0-3.67-2.25-5.37-5-3.78l-27.23,15.72c-2.75,1.59-5,5.89-5,9.56v29.66C291.63,293.26,293.88,295,296.63,293.37Z" transform="translate(-30.52 -5.72)" style="fill: #565656"/>
		<path id="r12" d="M339.28,268.5l27.24-15.73c2.75-1.58,5-5.89,5-9.55V213.56c0-3.67-2.25-5.37-5-3.78L339.28,225.5c-2.75,1.59-5,5.89-5,9.56v29.66C334.28,268.38,336.53,270.09,339.28,268.5Z" transform="translate(-30.52 -5.72)" style="fill: #565656"/>
		<path id="r13" d="M211.33,392.12l27.23-15.72c2.75-1.59,5-5.89,5-9.56V337.18c0-3.67-2.25-5.37-5-3.78l-27.23,15.72c-2.76,1.59-5,5.89-5,9.56v29.66C206.32,392,208.57,393.71,211.33,392.12Z" transform="translate(-30.52 -5.72)" style="fill: #565656"/>
		<path id="r14" d="M254,367.25l27.23-15.73c2.75-1.59,5-5.89,5-9.56V312.31c0-3.67-2.25-5.37-5-3.79L254,324.25c-2.75,1.59-5,5.89-5,9.56v29.65C249,367.13,251.23,368.83,254,367.25Z" transform="translate(-30.52 -5.72)" style="fill: #565656"/>
		<path id="r15" d="M296.63,342.37l27.23-15.72c2.76-1.59,5-5.89,5-9.56V287.43c0-3.67-2.25-5.37-5-3.78l-27.23,15.72c-2.75,1.59-5,5.89-5,9.56v29.66C291.63,342.26,293.88,344,296.63,342.37Z" transform="translate(-30.52 -5.72)" style="fill: #565656"/>
		<path id="r16" d="M339.28,317.5l27.24-15.73c2.75-1.59,5-5.89,5-9.56V262.56c0-3.67-2.25-5.37-5-3.79L339.28,274.5c-2.75,1.59-5,5.89-5,9.56v29.65C334.28,317.38,336.53,319.08,339.28,317.5Z" transform="translate(-30.52 -5.72)" style="fill: #565656"/>
	</g>
</svg>
