<svg xmlns="http://www.w3.org/2000/svg" viewBox="0 0 427.15 485.54">
	<path id="base" d="M427.15,351.73V133.81a24.84,24.84,0,0,0-12.42-21.52L226,3.33a24.85,24.85,0,0,0-24.85,0l-188.72,109A24.85,24.85,0,0,0,0,133.81V351.73a24.85,24.85,0,0,0,12.43,21.52l188.72,109a24.85,24.85,0,0,0,24.85,0l188.73-109A24.84,24.84,0,0,0,427.15,351.73Z"/>
	<g id="left">
		<path id="l1" d="M42,153.13v29.69c0,3.66-2.25,5.37-5,3.78L9.76,170.88c-2.75-1.59-5-5.9-5-9.56V131.63c0-3.67,2.25-5.37,5-3.78L37,143.57C39.74,145.16,42,149.46,42,153.13Z" style="fill: #565656"/>
		<path id="l2" d="M83.43,177.63v29.69c0,3.66-2.25,5.37-5,3.78L51.19,195.38c-2.75-1.59-5-5.9-5-9.56V156.13c0-3.67,2.25-5.37,5-3.78l27.24,15.72C81.18,169.66,83.43,174,83.43,177.63Z" style="fill: #565656"/>
		<path id="l3" d="M125.56,201.63v29.69c0,3.66-2.25,5.37-5,3.78L93.32,219.38c-2.75-1.59-5-5.9-5-9.56V180.13c0-3.67,2.25-5.37,5-3.78l27.24,15.72C123.31,193.66,125.56,198,125.56,201.63Z" style="fill: #565656"/>
		<path id="l4" d="M168,226.13v29.69c0,3.66-2.25,5.37-5,3.78l-27.23-15.72c-2.75-1.59-5-5.9-5-9.56V204.63c0-3.67,2.25-5.37,5-3.78L163,216.57C165.74,218.16,168,222.46,168,226.13Z" style="fill: #565656"/>
		<path id="l5" d="M210.43,250.63v29.69c0,3.66-2.25,5.37-5,3.78l-27.24-15.72c-2.75-1.59-5-5.9-5-9.56V229.13c0-3.67,2.25-5.37,5-3.78l27.24,15.72C208.18,242.66,210.43,247,210.43,250.63Z" style="fill: #565656"/>
		<path id="l6" d="M42,202.16v29.69c0,3.67-2.25,5.37-5,3.78L9.76,219.91c-2.75-1.59-5-5.89-5-9.56V180.66c0-3.67,2.25-5.37,5-3.78L37,192.6C39.74,194.19,42,198.49,42,202.16Z" style="fill: #180c8a"/>
		<path id="l7" d="M83.43,226.66v29.69c0,3.67-2.25,5.37-5,3.78L51.19,244.41c-2.75-1.59-5-5.89-5-9.56V205.16c0-3.67,2.25-5.37,5-3.78L78.43,217.1C81.18,218.69,83.43,223,83.43,226.66Z" style="fill: #565656"/>
		<path id="l8" d="M125.56,250.66v29.69c0,3.67-2.25,5.37-5,3.78L93.32,268.41c-2.75-1.59-5-5.89-5-9.56V229.16c0-3.67,2.25-5.37,5-3.78l27.24,15.72C123.31,242.69,125.56,247,125.56,250.66Z" style="fill: #565656"/>
		<path id="l9" d="M168,275.16v29.69c0,3.67-2.25,5.37-5,3.78l-27.23-15.72c-2.75-1.59-5-5.89-5-9.56V253.66c0-3.67,2.25-5.37,5-3.78L163,265.6C165.74,267.19,168,271.49,168,275.16Z" style="fill: #565656"/>
		<path id="l10" d="M210.43,299.66v29.69c0,3.67-2.25,5.37-5,3.78l-27.24-15.72c-2.75-1.59-5-5.89-5-9.56V278.16c0-3.67,2.25-5.37,5-3.78l27.24,15.72C208.18,291.69,210.43,296,210.43,299.66Z" style="fill: #ea0600"/>
		<path id="l11" d="M42,251.2v29.68c0,3.67-2.25,5.37-5,3.78L9.76,268.94c-2.75-1.59-5-5.89-5-9.56V229.7c0-3.67,2.25-5.38,5-3.79L37,241.63C39.74,243.22,42,247.53,42,251.2Z" style="fill: #ffa40d"/>
		<path id="l12" d="M83.43,275.7v29.68c0,3.67-2.25,5.37-5,3.78L51.19,293.44c-2.75-1.59-5-5.89-5-9.56V254.2c0-3.67,2.25-5.38,5-3.79l27.24,15.72C81.18,267.72,83.43,272,83.43,275.7Z" style="fill: #565656"/>
		<path id="l13" d="M125.56,299.7v29.68c0,3.67-2.25,5.37-5,3.78L93.32,317.44c-2.75-1.59-5-5.89-5-9.56V278.2c0-3.67,2.25-5.38,5-3.79l27.24,15.72C123.31,291.72,125.56,296,125.56,299.7Z" style="fill: #565656"/>
		<path id="l14" d="M168,324.2v29.68c0,3.67-2.25,5.37-5,3.78l-27.23-15.72c-2.75-1.59-5-5.89-5-9.56V302.7c0-3.67,2.25-5.38,5-3.79L163,314.63C165.74,316.22,168,320.53,168,324.2Z" style="fill: #565656"/>
		<path id="l15" d="M210.43,348.7v29.68c0,3.67-2.25,5.37-5,3.78l-27.24-15.72c-2.75-1.59-5-5.89-5-9.56V327.2c0-3.67,2.25-5.38,5-3.79l27.24,15.72C208.18,340.72,210.43,345,210.43,348.7Z" style="fill: #07a42e"/>
		<path id="l16" d="M42,300.13v29.69c0,3.66-2.25,5.37-5,3.78L9.76,317.88c-2.75-1.59-5-5.9-5-9.56V278.63c0-3.67,2.25-5.37,5-3.78L37,290.57C39.74,292.16,42,296.46,42,300.13Z" style="fill: #180c8a"/>
		<path id="l17" d="M83.43,324.63v29.69c0,3.66-2.25,5.37-5,3.78L51.19,342.38c-2.75-1.59-5-5.9-5-9.56V303.13c0-3.67,2.25-5.37,5-3.78l27.24,15.72C81.18,316.66,83.43,321,83.43,324.63Z" style="fill: #565656"/>
		<path id="l18" d="M125.56,348.63v29.69c0,3.66-2.25,5.37-5,3.78L93.32,366.38c-2.75-1.59-5-5.9-5-9.56V327.13c0-3.67,2.25-5.37,5-3.78l27.24,15.72C123.31,340.66,125.56,345,125.56,348.63Z" style="fill: #565656"/>
		<path id="l19" d="M168,373.13v29.69c0,3.66-2.25,5.37-5,3.78l-27.23-15.72c-2.75-1.59-5-5.9-5-9.56V351.63c0-3.67,2.25-5.37,5-3.78L163,363.57C165.74,365.16,168,369.46,168,373.13Z" style="fill: #565656"/>
		<path id="l20" d="M210.43,397.63v29.69c0,3.66-2.25,5.37-5,3.78l-27.24-15.72c-2.75-1.59-5-5.9-5-9.56V376.13c0-3.67,2.25-5.37,5-3.78l27.24,15.72C208.18,389.66,210.43,394,210.43,397.63Z" style="fill: #ea0600"/>
		<path id="l21" d="M42,349.16v29.69c0,3.67-2.25,5.37-5,3.78L9.76,366.91c-2.75-1.59-5-5.89-5-9.56V327.66c0-3.67,2.25-5.37,5-3.78L37,339.6C39.74,341.19,42,345.49,42,349.16Z" style="fill: #565656"/>
		<path id="l22" d="M83.43,373.66v29.69c0,3.67-2.25,5.37-5,3.78L51.19,391.41c-2.75-1.59-5-5.89-5-9.56V352.16c0-3.67,2.25-5.37,5-3.78L78.43,364.1C81.18,365.69,83.43,370,83.43,373.66Z" style="fill: #565656"/>
		<path id="l23" d="M125.56,397.66v29.69c0,3.67-2.25,5.37-5,3.78L93.32,415.41c-2.75-1.59-5-5.89-5-9.56V376.16c0-3.67,2.25-5.37,5-3.78l27.24,15.72C123.31,389.69,125.56,394,125.56,397.66Z" style="fill: #565656"/>
		<path id="l24" d="M168,422.16v29.69c0,3.67-2.25,5.37-5,3.78l-27.23-15.72c-2.75-1.59-5-5.89-5-9.56V400.66c0-3.67,2.25-5.37,5-3.78L163,412.6C165.74,414.19,168,418.49,168,422.16Z" style="fill: #565656"/>
		<path id="l25" d="M210.43,446.66v29.69c0,3.67-2.25,5.37-5,3.78l-27.24-15.72c-2.75-1.59-5-5.89-5-9.56V425.16c0-3.67,2.25-5.37,5-3.78l27.24,15.72C208.18,438.69,210.43,443,210.43,446.66Z" style="fill: #565656"/>
	</g>

	<g id="top">
		<path id="t1" d="M49.66,139.63,76.89,123.9c2.75-1.59,2.4-4.39-.78-6.22l-25.7-14.84c-3.18-1.84-8-2-10.78-.45L12.39,118.11c-2.75,1.59-2.4,4.39.78,6.23l25.71,14.84C42.05,141,46.91,141.21,49.66,139.63Z" style="fill: #565656"/>
		<path id="t2" d="M92.09,115.13,119.32,99.4c2.76-1.59,2.41-4.39-.77-6.22L92.84,78.34c-3.18-1.84-8-2-10.78-.45L54.83,93.61c-2.75,1.59-2.4,4.39.77,6.23l25.71,14.84C84.49,116.51,89.34,116.71,92.09,115.13Z" style="fill: #565656"/>
		<path id="t3" d="M134.53,90.63,161.76,74.9c2.75-1.59,2.4-4.39-.77-6.22L135.28,53.84c-3.18-1.84-8-2-10.78-.45L97.26,69.11c-2.75,1.59-2.4,4.39.78,6.23l25.71,14.84C126.92,92,131.78,92.21,134.53,90.63Z" style="fill: #565656"/>
		<path id="t4" d="M176.66,66.63,203.89,50.9c2.75-1.59,2.4-4.39-.78-6.22l-25.7-14.84c-3.18-1.84-8-2-10.78-.45L139.39,45.11c-2.75,1.59-2.4,4.39.78,6.23l25.71,14.84C169.05,68,173.91,68.21,176.66,66.63Z" style="fill: #565656"/>
		<path id="t5" d="M219.09,42.13,246.32,26.4c2.76-1.59,2.41-4.39-.77-6.22L219.84,5.34c-3.18-1.84-8-2-10.78-.45L181.83,20.61c-2.75,1.59-2.4,4.39.77,6.23l25.71,14.84C211.49,43.51,216.34,43.71,219.09,42.13Z" style="fill: #565656"/>
		<path id="t6" d="M92.12,164.14l27.23-15.72c2.75-1.59,2.41-4.39-.77-6.23L92.87,127.35c-3.18-1.83-8-2-10.78-.44L54.86,142.63c-2.75,1.59-2.41,4.39.77,6.22l25.71,14.84C84.52,165.53,89.37,165.73,92.12,164.14Z" style="fill: #565656"/>
		<path id="t7" d="M134.56,139.64l27.23-15.72c2.75-1.59,2.4-4.39-.78-6.23l-25.7-14.84c-3.18-1.83-8-2-10.79-.44L97.29,118.13c-2.75,1.59-2.4,4.39.78,6.22l25.7,14.84C127,141,131.8,141.23,134.56,139.64Z" style="fill: #565656"/>
		<path id="t8" d="M177,115.14l27.23-15.72c2.75-1.59,2.41-4.39-.77-6.23L177.74,78.35c-3.18-1.83-8-2-10.78-.44L139.73,93.63c-2.75,1.59-2.41,4.39.77,6.22l25.71,14.84C169.39,116.53,174.24,116.73,177,115.14Z" style="fill: #565656"/>
		<path id="t9" d="M219.12,91.14l27.23-15.72c2.75-1.59,2.41-4.39-.77-6.23L219.87,54.35c-3.18-1.83-8-2-10.78-.44L181.86,69.63c-2.75,1.59-2.41,4.39.77,6.22l25.71,14.84C211.52,92.53,216.37,92.73,219.12,91.14Z" style="fill: #565656"/>
		<path id="t10" d="M261.56,66.64l27.23-15.72c2.75-1.59,2.4-4.39-.78-6.23l-25.7-14.84c-3.18-1.83-8-2-10.79-.44L224.29,45.13c-2.75,1.59-2.4,4.39.78,6.22l25.7,14.84C254,68,258.8,68.23,261.56,66.64Z" style="fill: #565656"/>
		<path id="t11" d="M134.19,189.11l27.24-15.72c2.75-1.59,2.4-4.39-.78-6.23l-25.71-14.84c-3.17-1.84-8-2-10.78-.45L96.93,167.59c-2.75,1.59-2.4,4.39.77,6.23l25.71,14.84C126.59,190.5,131.44,190.7,134.19,189.11Z" style="fill: #565656"/>
		<path id="t12" d="M176.63,164.61l27.23-15.72c2.75-1.59,2.4-4.39-.77-6.23l-25.71-14.84c-3.18-1.84-8-2-10.78-.45l-27.23,15.72c-2.76,1.59-2.41,4.39.77,6.23l25.71,14.84C169,166,173.88,166.2,176.63,164.61Z" style="fill: #565656"/>
		<path id="t13" d="M219.06,140.11l27.24-15.72c2.75-1.59,2.4-4.39-.78-6.23l-25.71-14.84c-3.17-1.84-8-2-10.78-.45L181.8,118.59c-2.75,1.59-2.4,4.39.78,6.23l25.7,14.84C211.46,141.5,216.31,141.7,219.06,140.11Z" style="fill: #565656"/>
		<path id="t14" d="M261.19,115.11l27.24-15.72c2.75-1.59,2.4-4.39-.78-6.23L261.94,78.32c-3.17-1.84-8-2-10.78-.45L223.93,93.59c-2.75,1.59-2.4,4.39.77,6.23l25.71,14.84C253.59,116.5,258.44,116.7,261.19,115.11Z" style="fill: #565656"/>
		<path id="t15" d="M303.63,90.61l27.23-15.72c2.75-1.59,2.4-4.39-.77-6.23L304.38,53.82c-3.18-1.84-8-2-10.78-.45L266.37,69.09c-2.76,1.59-2.41,4.39.77,6.23l25.71,14.84C296,92,300.88,92.2,303.63,90.61Z" style="fill: #565656"/>
		<path id="t16" d="M176.66,213.63l27.23-15.73c2.75-1.59,2.4-4.39-.78-6.22l-25.7-14.84c-3.18-1.84-8-2-10.78-.45l-27.24,15.72c-2.75,1.59-2.4,4.39.78,6.23l25.71,14.84C169.05,215,173.91,215.21,176.66,213.63Z" style="fill: #565656"/>
		<path id="t17" d="M219.09,189.13l27.23-15.73c2.76-1.59,2.41-4.39-.77-6.22l-25.71-14.84c-3.18-1.84-8-2-10.78-.45l-27.23,15.72c-2.75,1.59-2.4,4.39.77,6.23l25.71,14.84C211.49,190.51,216.34,190.71,219.09,189.13Z" style="fill: #565656"/>
		<path id="t18" d="M261.53,164.63l27.23-15.73c2.75-1.59,2.4-4.39-.77-6.22l-25.71-14.84c-3.18-1.84-8-2-10.78-.45l-27.24,15.72c-2.75,1.59-2.4,4.39.78,6.23l25.71,14.84C253.92,166,258.78,166.21,261.53,164.63Z" style="fill: #565656"/>
		<path id="t19" d="M303.66,139.63l27.23-15.73c2.75-1.59,2.4-4.39-.78-6.22l-25.7-14.84c-3.18-1.84-8-2-10.78-.45l-27.24,15.72c-2.75,1.59-2.4,4.39.78,6.23l25.71,14.84C296.05,141,300.91,141.21,303.66,139.63Z" style="fill: #565656"/>
		<path id="t20" d="M346.09,115.13,373.32,99.4c2.76-1.59,2.41-4.39-.77-6.22L346.84,78.34c-3.18-1.84-8-2-10.78-.45L308.83,93.61c-2.75,1.59-2.4,4.39.77,6.23l25.71,14.84C338.49,116.51,343.34,116.71,346.09,115.13Z" style="fill: #565656"/>
		<path id="t21" d="M219.12,238.14l27.23-15.72c2.75-1.59,2.41-4.39-.77-6.23l-25.71-14.84c-3.18-1.83-8-2-10.78-.44l-27.23,15.72c-2.75,1.59-2.41,4.39.77,6.22l25.71,14.84C211.52,239.53,216.37,239.73,219.12,238.14Z" style="fill: #565656"/>
		<path id="t22" d="M261.56,213.64l27.23-15.72c2.75-1.59,2.4-4.39-.78-6.23l-25.7-14.84c-3.18-1.83-8-2-10.79-.44l-27.23,15.72c-2.75,1.59-2.4,4.39.78,6.22l25.7,14.84C254,215,258.8,215.23,261.56,213.64Z" style="fill: #565656"/>
		<path id="t23" d="M304,189.14l27.23-15.72c2.75-1.59,2.41-4.39-.77-6.23l-25.71-14.84c-3.18-1.83-8-2-10.78-.44l-27.23,15.72c-2.75,1.59-2.41,4.39.77,6.22l25.71,14.84C296.39,190.53,301.24,190.73,304,189.14Z" style="fill: #565656"/>
		<path id="t24" d="M346.12,164.14l27.23-15.72c2.75-1.59,2.41-4.39-.77-6.23l-25.71-14.84c-3.18-1.83-8-2-10.78-.44l-27.23,15.72c-2.75,1.59-2.41,4.39.77,6.22l25.71,14.84C338.52,165.53,343.37,165.73,346.12,164.14Z" style="fill: #565656"/>
		<path id="t25" d="M388.56,139.64l27.23-15.72c2.75-1.59,2.4-4.39-.78-6.23l-25.7-14.84c-3.18-1.83-8-2-10.79-.44l-27.23,15.72c-2.75,1.59-2.4,4.39.78,6.22l25.7,14.84C381,141,385.8,141.23,388.56,139.64Z" style="fill: #565656"/>
	</g>
	
	<g id="right">
		<path id="r1" d="M215.72,251.63v29.69c0,3.66,2.25,5.37,5,3.78L248,269.38c2.75-1.59,5-5.9,5-9.56V230.13c0-3.67-2.25-5.37-5-3.78l-27.23,15.72C218,243.66,215.72,248,215.72,251.63Z" style="fill: #565656"/>
		<path id="r2" d="M258.16,227.13v29.69c0,3.66,2.25,5.37,5,3.78l27.23-15.72c2.75-1.59,5-5.9,5-9.56V205.63c0-3.67-2.26-5.37-5-3.78l-27.23,15.72C260.41,219.16,258.16,223.46,258.16,227.13Z" style="fill: #565656"/>
		<path id="r3" d="M300.59,202.63v29.69c0,3.66,2.25,5.37,5,3.78l27.23-15.72c2.75-1.59,5-5.9,5-9.56V181.13c0-3.67-2.25-5.37-5-3.78L305.6,193.07C302.84,194.66,300.59,199,300.59,202.63Z" style="fill: #565656"/>
		<path id="r4" d="M342.72,177.63v29.69c0,3.66,2.25,5.37,5,3.78L375,195.38c2.75-1.59,5-5.9,5-9.56V156.13c0-3.67-2.25-5.37-5-3.78l-27.23,15.72C345,169.66,342.72,174,342.72,177.63Z" style="fill: #565656"/>
		<path id="r5" d="M385.16,153.13v29.69c0,3.66,2.25,5.37,5,3.78l27.23-15.72c2.75-1.59,5-5.9,5-9.56V131.63c0-3.67-2.26-5.37-5-3.78l-27.23,15.72C387.41,145.16,385.16,149.46,385.16,153.13Z" style="fill: #565656"/>
		<path id="r6" d="M215.72,300.66v29.69c0,3.67,2.25,5.37,5,3.78L248,318.41c2.75-1.59,5-5.89,5-9.56V279.16c0-3.67-2.25-5.37-5-3.78L220.73,291.1C218,292.69,215.72,297,215.72,300.66Z" style="fill: #07a42e"/>
		<path id="r7" d="M258.16,276.16v29.69c0,3.67,2.25,5.37,5,3.78l27.23-15.72c2.75-1.59,5-5.89,5-9.56V254.66c0-3.67-2.26-5.37-5-3.78L263.16,266.6C260.41,268.19,258.16,272.49,258.16,276.16Z" style="fill: #565656"/>
		<path id="r8" d="M300.59,251.66v29.69c0,3.67,2.25,5.37,5,3.78l27.23-15.72c2.75-1.59,5-5.89,5-9.56V230.16c0-3.67-2.25-5.37-5-3.78L305.6,242.1C302.84,243.69,300.59,248,300.59,251.66Z" style="fill: #565656"/>
		<path id="r9" d="M342.72,226.66v29.69c0,3.67,2.25,5.37,5,3.78L375,244.41c2.75-1.59,5-5.89,5-9.56V205.16c0-3.67-2.25-5.37-5-3.78L347.73,217.1C345,218.69,342.72,223,342.72,226.66Z" style="fill: #565656"/>
		<path id="r10" d="M385.16,202.16v29.69c0,3.67,2.25,5.37,5,3.78l27.23-15.72c2.75-1.59,5-5.89,5-9.56V180.66c0-3.67-2.26-5.37-5-3.78L390.16,192.6C387.41,194.19,385.16,198.49,385.16,202.16Z" style="fill: #565656"/>
		<path id="r11" d="M215.72,349.7v29.68c0,3.67,2.25,5.37,5,3.78L248,367.44c2.75-1.59,5-5.89,5-9.56V328.2c0-3.67-2.25-5.38-5-3.79l-27.23,15.72C218,341.72,215.72,346,215.72,349.7Z" style="fill: #ea0600"/>
		<path id="r12" d="M258.16,325.2v29.68c0,3.67,2.25,5.37,5,3.78l27.23-15.72c2.75-1.59,5-5.89,5-9.56V303.7c0-3.67-2.26-5.38-5-3.79l-27.23,15.72C260.41,317.22,258.16,321.53,258.16,325.2Z" style="fill: #565656"/>
		<path id="r13" d="M300.59,300.7v29.68c0,3.67,2.25,5.37,5,3.78l27.23-15.72c2.75-1.59,5-5.89,5-9.56V279.2c0-3.67-2.25-5.38-5-3.79L305.6,291.13C302.84,292.72,300.59,297,300.59,300.7Z" style="fill: #565656"/>
		<path id="r14" d="M342.72,275.7v29.68c0,3.67,2.25,5.37,5,3.78L375,293.44c2.75-1.59,5-5.89,5-9.56V254.2c0-3.67-2.25-5.38-5-3.79l-27.23,15.72C345,267.72,342.72,272,342.72,275.7Z" style="fill: #565656"/>
		<path id="r15" d="M385.16,251.2v29.68c0,3.67,2.25,5.37,5,3.78l27.23-15.72c2.75-1.59,5-5.89,5-9.56V229.7c0-3.67-2.26-5.38-5-3.79l-27.23,15.72C387.41,243.22,385.16,247.53,385.16,251.2Z" style="fill: #565656"/>
		<path id="r16" d="M215.72,398.63v29.69c0,3.66,2.25,5.37,5,3.78L248,416.38c2.75-1.59,5-5.9,5-9.56V377.13c0-3.67-2.25-5.37-5-3.78l-27.23,15.72C218,390.66,215.72,395,215.72,398.63Z" style="fill: #07a42e"/>
		<path id="r17" d="M258.16,374.13v29.69c0,3.66,2.25,5.37,5,3.78l27.23-15.72c2.75-1.59,5-5.9,5-9.56V352.63c0-3.67-2.26-5.37-5-3.78l-27.23,15.72C260.41,366.16,258.16,370.46,258.16,374.13Z" style="fill: #565656"/>
		<path id="r18" d="M300.59,349.63v29.69c0,3.66,2.25,5.37,5,3.78l27.23-15.72c2.75-1.59,5-5.9,5-9.56V328.13c0-3.67-2.25-5.37-5-3.78L305.6,340.07C302.84,341.66,300.59,346,300.59,349.63Z" style="fill: #565656"/>
		<path id="r19" d="M342.72,324.63v29.69c0,3.66,2.25,5.37,5,3.78L375,342.38c2.75-1.59,5-5.9,5-9.56V303.13c0-3.67-2.25-5.37-5-3.78l-27.23,15.72C345,316.66,342.72,321,342.72,324.63Z" style="fill: #565656"/>
		<path id="r20" d="M385.16,300.13v29.69c0,3.66,2.25,5.37,5,3.78l27.23-15.72c2.75-1.59,5-5.9,5-9.56V278.63c0-3.67-2.26-5.37-5-3.78l-27.23,15.72C387.41,292.16,385.16,296.46,385.16,300.13Z" style="fill: #565656"/>
		<path id="r21" d="M215.72,447.66v29.69c0,3.67,2.25,5.37,5,3.78L248,465.41c2.75-1.59,5-5.89,5-9.56V426.16c0-3.67-2.25-5.37-5-3.78L220.73,438.1C218,439.69,215.72,444,215.72,447.66Z" style="fill: #565656"/>
		<path id="r22" d="M258.16,423.16v29.69c0,3.67,2.25,5.37,5,3.78l27.23-15.72c2.75-1.59,5-5.89,5-9.56V401.66c0-3.67-2.26-5.37-5-3.78L263.16,413.6C260.41,415.19,258.16,419.49,258.16,423.16Z" style="fill: #565656"/>
		<path id="r23" d="M300.59,398.66v29.69c0,3.67,2.25,5.37,5,3.78l27.23-15.72c2.75-1.59,5-5.89,5-9.56V377.16c0-3.67-2.25-5.37-5-3.78L305.6,389.1C302.84,390.69,300.59,395,300.59,398.66Z" style="fill: #565656"/>
		<path id="r24" d="M342.72,373.66v29.69c0,3.67,2.25,5.37,5,3.78L375,391.41c2.75-1.59,5-5.89,5-9.56V352.16c0-3.67-2.25-5.37-5-3.78L347.73,364.1C345,365.69,342.72,370,342.72,373.66Z" style="fill: #565656"/>
		<path id="r25" d="M385.16,349.16v29.69c0,3.67,2.25,5.37,5,3.78l27.23-15.72c2.75-1.59,5-5.89,5-9.56V327.66c0-3.67-2.26-5.37-5-3.78L390.16,339.6C387.41,341.19,385.16,345.49,385.16,349.16Z" style="fill: #565656"/>
	</g>
</svg>